<?xml version="1.0" encoding="utf-8"?>
<!-- Generator: Adobe Illustrator 22.0.1, SVG Export Plug-In . SVG Version: 6.00 Build 0)  -->
<svg version="1.1" id="Layer_1" xmlns="http://www.w3.org/2000/svg" xmlns:xlink="http://www.w3.org/1999/xlink" x="0px" y="0px"
	 viewBox="0 0 70 70" style="enable-background:new 0 0 70 70;" xml:space="preserve">
<style type="text/css">
	.st0{fill:#667073;}
	.st1{fill:#333F4F;}
	.st2{fill:#FFFFFF;}
</style>
<g>
	<path class="st0" d="M61.7,37.8L41.2,12.6l-9.9,4.3L32,14l-9-2l-2.6,9.6l-8.1,3.5c-2.5,1.1-4,3.2-3.2,4.8c0.7,1.5,1.4,2.8,1.4,2.8
		l28.9-12.3l20.6,24.8l2.5-1.7C63.7,42.5,63.4,40,61.7,37.8z M52.8,44.4L37.9,25.8l-22,9.4L11.2,54H6v4h21l5-3l-2-11l11-10l-6,11
		l6,10l-3,3h19v-4h-6.6L52.8,44.4z"/>
</g>
</svg>
