<?xml version="1.0" encoding="utf-8"?>
<!-- Generator: Adobe Illustrator 22.0.1, SVG Export Plug-In . SVG Version: 6.00 Build 0)  -->
<svg version="1.1" id="Layer_1" xmlns="http://www.w3.org/2000/svg" xmlns:xlink="http://www.w3.org/1999/xlink" x="0px" y="0px"
	 viewBox="0 0 70 70" style="enable-background:new 0 0 70 70;" xml:space="preserve">
<style type="text/css">
	.st0{fill:#667073;}
	.st1{fill:#333F4F;}
	.st2{fill:#FFFFFF;}
</style>
<g>
	<path class="st0" d="M46,10.5c-6.2,0-14.4,0-22,0c-2.1,5.3-7,8.4-12,11c1.1,16.5,8.6,34.6,23,38c14.4-3.4,21.9-21.5,23-38
		C53,18.9,48.1,15.8,46,10.5z M35,32.5v21.8c-8.1-2.6-13.5-11.7-16.2-21.8H35v-17h7.9c2.4,3.9,6,6.6,9.8,8.8
		c-0.3,2.7-0.8,5.5-1.6,8.2H35z"/>
</g>
</svg>
